…
#single
gh_data <- repos[1]%>%
  gh_commit_data()

#multiple
gh_data <- repos%>%
  purrr::map_df(gh_commit_data)
```

``` r
gh_data
#> # A tibble: 130 x 7
#>             w     a     d     c user        date       repo              
#>         <dbl> <dbl> <dbl> <dbl> <chr>       <date>     <chr>             
#>  1 1524355200   523   470     4 yonicd      2018-04-22 thinkr-open/remedy
#>  2 1517097600     2     0     1 dpprdan     2018-01-28 thinkr-open/remedy
#>  3 1515888000    45    45     1 ColinFay    2018-01-14 thinkr-open/remedy
#>  4 1513468800   159     1     1 jonocarroll 2017-12-17 thinkr-open/remedy
#>  5 1512259200   145    17     3 yonicd      2017-12-03 thinkr-open/remedy
#>  6 1511654400   105     8     2 yonicd      2017-11-26 thinkr-open/remedy
#>  7 1511049600    86    18     4 ColinFay    2017-11-19 thinkr-open/remedy
#>  8 1511049600   781   353    16 yonicd      2017-11-19 thinkr-open/remedy
#>  9 1505606400   194    71     7 ColinFay    2017-09-17 thinkr-open/remedy
#> 10 1505001600    19    50     3 ColinFay    2017-09-10 thinkr-open/remedy
#> # ... with 120 more rows
```
…
